Chapter 5 Application | Bioinformatics tools and pipelines using R and CWL
…
## The following objects are masked from 'package:stats':
## 
##     filter, lag

## The following objects are masked from 'package:base':
## 
##     intersect, setdiff, setequal, union

library(conflicted)
## always use select from dplyr
conflict_prefer("select", "dplyr", quiet = TRUE)
conflict_prefer("filter", "dplyr", quiet = TRUE)
bfcinfo(tools) %>% select(rname, fpath)

## # A tibble: 77 x 2
##    rname              fpath                                                
##    <chr>              <chr>                                                
##  1 ApplyBQSR          /home/qhu/workspace/projects/RPipe/RcwlPipelines/ins…
##  2 BaseRecalibrator   /home/qhu/workspace/projects/RPipe/RcwlPipelines/ins…
##  3 bcfview            /home/qhu/workspace/projects/RPipe/RcwlPipelines/ins…
##  4 bgzip              /home/qhu/workspace/projects/RPipe/RcwlPipelines/ins…
##  5 blastn             /home/qhu/workspace/projects/RPipe/RcwlPipelines/ins…
##  6 bowtie2_build      /home/qhu/workspace/projects/RPipe/RcwlPipelines/ins…
##  7 bowtie2            /home/qhu/workspace/projects/RPipe/RcwlPipelines/ins…
##  8 bwa_index          /home/qhu/workspace/projects/RPipe/RcwlPipelines/ins…
##  9 bwa                /home/qhu/workspace/projects/RPipe/RcwlPipelines/ins…
## 10 CalculateContamin… /home/qhu/workspace/projects/RPipe/RcwlPipelines/ins…
## # … with 67 more rows
…
