Chapter 6 DNA-Seq Variant calling | Bioinformatics tools and pipelines using R and CWL
…
res2 <- runCWLBatch(bwaMRecal, outdir = "apps/variants/BAM", inputList, paramList,
                    BPPARAM = BatchtoolsParam(workers = length(samples),
                                              cluster = "sge",
                                              template = "apps/data/sge.tmpl",
                                              resources = list(threads = 16,
                                                               queue = "all.q",
                                                               jobname = "align"),
                                              log = TRUE, logdir = ".", progressbar = TRUE),
                    stderr = "")

Here are the outputs:

dir_info("apps/variants/BAM/", recurse = TRUE) %>% select(path, size)

## # A tibble: 26 x 2
##    path                                                       size
##    <fs::path>                                          <fs::bytes>
##  1 apps/variants/BAM/normal19                                   4K
##  2 apps/variants/BAM/normal19/normal19.bai                    2.6M
##  3 apps/variants/BAM/normal19/normal19.bam                    2.3G
##  4 apps/variants/BAM/normal19/normal19.bam.bai                2.6M
##  5 apps/variants/BAM/normal19/normal19.bam.markdup.txt       2.75K
##  6 apps/variants/BAM/normal19/normal19.flagstat.txt            448
##  7 apps/variants/BAM/normal19/normal19.stats.txt            95.16K
##  8 apps/variants/BAM/normal20                                   4K
##  9 apps/variants/BAM/normal20/normal20.bai                   2.45M
## 10 apps/variants/BAM/normal20/normal20.bam                   2.23G
## # … with 16 more rows
…
