Chapter 9 RcwlPipelines tools | Bioinformatics tools and pipelines with R and CWL
…
tools <- cwlTools(cachePath = tempdir())
tools

## class: BiocFileCache
## bfccache: /tmp/RtmpsjsnTz
## bfccount: 25
## For more information see: bfcinfo() or bfcquery()

The full paths can be pulled from the “fpath” column.

library(dplyr)
bfcinfo(tools) %>% select(rname, fpath)

## # A tibble: 25 x 2
##    rname           fpath                                                   
##    <chr>           <chr>                                                   
##  1 bwa             /home/qhu/usr/R-3.5/lib64/R/library/RcwlPipelines/tools…
##  2 fastQC          /home/qhu/usr/R-3.5/lib64/R/library/RcwlPipelines/tools…
##  3 featureCounts   /home/qhu/usr/R-3.5/lib64/R/library/RcwlPipelines/tools…
##  4 geneBody_cover… /home/qhu/usr/R-3.5/lib64/R/library/RcwlPipelines/tools…
##  5 genePredToBed   /home/qhu/usr/R-3.5/lib64/R/library/RcwlPipelines/tools…
##  6 gtfToGenePred   /home/qhu/usr/R-3.5/lib64/R/library/RcwlPipelines/tools…
##  7 markdup         /home/qhu/usr/R-3.5/lib64/R/library/RcwlPipelines/tools…
##  8 mergeBam        /home/qhu/usr/R-3.5/lib64/R/library/RcwlPipelines/tools…
##  9 multiqc         /home/qhu/usr/R-3.5/lib64/R/library/RcwlPipelines/tools…
## 10 read_distribut… /home/qhu/usr/R-3.5/lib64/R/library/RcwlPipelines/tools…
## # … with 15 more rows
…
